Wed Mar 9 12:04:19 EET 2016
Wed Mar 9 12:04:19 EET 2016
Wed Mar 9 12:15:02 EET 2016
Wed Mar 9 12:15:02 EET 2016
Wed Mar 9 12:22:25 EET 2016
Wed Mar 9 12:22:26 EET 2016
Wed Mar 9 13:05:01 EET 2016
Wed Mar 9 13:05:02 EET 2016
Wed Mar 9 13:47:49 EET 2016
Wed Mar 9 13:47:50 EET 2016
Wed Mar 9 13:50:22 EET 2016
Wed Mar 9 13:50:23 EET 2016
Wed Mar 9 13:51:09 EET 2016
Wed Mar 9 13:51:09 EET 2016
Wed Mar 9 13:55:01 EET 2016
Wed Mar 9 13:55:01 EET 2016
Wed Mar 9 14:00:02 EET 2016
Wed Mar 9 14:00:02 EET 2016
Wed Mar 9 14:05:01 EET 2016
Wed Mar 9 14:05:01 EET 2016
Wed Mar 9 14:10:01 EET 2016
Wed Mar 9 14:10:01 EET 2016
Wed Mar 9 14:15:01 EET 2016
Wed Mar 9 14:15:01 EET 2016
Wed Mar 9 14:20:01 EET 2016
Wed Mar 9 14:20:01 EET 2016
